Jan 8, 2015 11:35:09 PM org.apache.solr.servlet.SolrDispatchFilter init
INFO: SolrDispatchFilter.init()
Jan 8, 2015 11:35:09 PM org.apache.solr.core.SolrResourceLoader locateSolrHome
INFO: JNDI not configured for solr (NoInitialContextEx)
Jan 8, 2015 11:35:09 PM org.apache.solr.core.SolrResourceLoader locateSolrHome
INFO: using system property solr.solr.home: /Users/francis/Documents/Work/Famous/api/solr
Jan 8, 2015 11:35:09 PM org.apache.solr.core.CoreContainer$Initializer initialize
INFO: looking for solr.xml: /Users/francis/Documents/Work/Famous/api/solr/solr.xml
Jan 8, 2015 11:35:09 PM org.apache.solr.core.CoreContainer <init>
INFO: New CoreContainer 31447144
Jan 8, 2015 11:35:09 PM org.apache.solr.core.CoreContainer load
INFO: Loading CoreContainer using Solr Home: '/Users/francis/Documents/Work/Famous/api/solr/'
Jan 8, 2015 11:35:09 PM org.apache.solr.core.SolrResourceLoader <init>
INFO: new SolrResourceLoader for directory: '/Users/francis/Documents/Work/Famous/api/solr/'
Jan 8, 2015 11:35:09 PM org.apache.solr.handler.component.HttpShardHandlerFactory getParameter
INFO: Setting socketTimeout to: 0
Jan 8, 2015 11:35:09 PM org.apache.solr.handler.component.HttpShardHandlerFactory getParameter
INFO: Setting urlScheme to: http://
Jan 8, 2015 11:35:09 PM org.apache.solr.handler.component.HttpShardHandlerFactory getParameter
INFO: Setting connTimeout to: 0
Jan 8, 2015 11:35:09 PM org.apache.solr.handler.component.HttpShardHandlerFactory getParameter
INFO: Setting maxConnectionsPerHost to: 20
Jan 8, 2015 11:35:09 PM org.apache.solr.handler.component.HttpShardHandlerFactory getParameter
INFO: Setting corePoolSize to: 0
Jan 8, 2015 11:35:09 PM org.apache.solr.handler.component.HttpShardHandlerFactory getParameter
INFO: Setting maximumPoolSize to: 2147483647
Jan 8, 2015 11:35:09 PM org.apache.solr.handler.component.HttpShardHandlerFactory getParameter
INFO: Setting maxThreadIdleTime to: 5
Jan 8, 2015 11:35:09 PM org.apache.solr.handler.component.HttpShardHandlerFactory getParameter
INFO: Setting sizeOfQueue to: -1
Jan 8, 2015 11:35:09 PM org.apache.solr.handler.component.HttpShardHandlerFactory getParameter
INFO: Setting fairnessPolicy to: false
Jan 8, 2015 11:35:09 PM org.apache.solr.client.solrj.impl.HttpClientUtil createClient
INFO: Creating new http client, config:maxConnectionsPerHost=20&maxConnections=10000&socketTimeout=0&connTimeout=0&retry=false
Jan 8, 2015 11:35:09 PM org.apache.solr.core.CoreContainer load
INFO: Registering Log Listener
Jan 8, 2015 11:35:09 PM org.apache.solr.core.CoreContainer create
INFO: Creating SolrCore 'default' using instanceDir: /Users/francis/Documents/Work/Famous/api/solr/.
Jan 8, 2015 11:35:09 PM org.apache.solr.core.SolrResourceLoader <init>
INFO: new SolrResourceLoader for directory: '/Users/francis/Documents/Work/Famous/api/solr/./'
Jan 8, 2015 11:35:09 PM org.apache.solr.core.CoreContainer create
INFO: Creating SolrCore 'development' using instanceDir: /Users/francis/Documents/Work/Famous/api/solr/.
Jan 8, 2015 11:35:09 PM org.apache.solr.core.SolrResourceLoader <init>
INFO: new SolrResourceLoader for directory: '/Users/francis/Documents/Work/Famous/api/solr/./'
Jan 8, 2015 11:35:09 PM org.apache.solr.core.CoreContainer create
INFO: Creating SolrCore 'test' using instanceDir: /Users/francis/Documents/Work/Famous/api/solr/.
Jan 8, 2015 11:35:09 PM org.apache.solr.core.SolrResourceLoader <init>
INFO: new SolrResourceLoader for directory: '/Users/francis/Documents/Work/Famous/api/solr/./'
Jan 8, 2015 11:35:10 PM org.apache.solr.core.SolrConfig <init>
INFO: Using Lucene MatchVersion: LUCENE_41
Jan 8, 2015 11:35:10 PM org.apache.solr.core.SolrConfig <init>
INFO: Using Lucene MatchVersion: LUCENE_41
Jan 8, 2015 11:35:10 PM org.apache.solr.core.SolrConfig <init>
INFO: Using Lucene MatchVersion: LUCENE_41
Jan 8, 2015 11:35:10 PM org.apache.solr.core.SolrConfig <init>
INFO: Loaded SolrConfig: solrconfig.xml
Jan 8, 2015 11:35:10 PM org.apache.solr.schema.IndexSchema readSchema
INFO: Reading Solr Schema
Jan 8, 2015 11:35:10 PM org.apache.solr.core.SolrConfig <init>
INFO: Loaded SolrConfig: solrconfig.xml
Jan 8, 2015 11:35:10 PM org.apache.solr.schema.IndexSchema readSchema
INFO: Reading Solr Schema
Jan 8, 2015 11:35:10 PM org.apache.solr.core.SolrConfig <init>
INFO: Loaded SolrConfig: solrconfig.xml
Jan 8, 2015 11:35:10 PM org.apache.solr.schema.IndexSchema readSchema
INFO: Reading Solr Schema
Jan 8, 2015 11:35:10 PM org.apache.solr.schema.IndexSchema readSchema
INFO: Schema name=sunspot
Jan 8, 2015 11:35:10 PM org.apache.solr.schema.IndexSchema readSchema
INFO: Schema name=sunspot
Jan 8, 2015 11:35:10 PM org.apache.solr.schema.IndexSchema readSchema
INFO: Schema name=sunspot
Jan 8, 2015 11:35:10 PM org.apache.solr.schema.IndexSchema readSchema
INFO: default search field in schema is text
Jan 8, 2015 11:35:10 PM org.apache.solr.schema.IndexSchema readSchema
INFO: query parser default operator is AND
Jan 8, 2015 11:35:10 PM org.apache.solr.schema.IndexSchema readSchema
INFO: unique key field: id
Jan 8, 2015 11:35:10 PM org.apache.solr.schema.IndexSchema readSchema
INFO: default search field in schema is text
Jan 8, 2015 11:35:10 PM org.apache.solr.core.SolrCore <init>
INFO: [test] Opening new SolrCore at /Users/francis/Documents/Work/Famous/api/solr/./, dataDir=/Users/francis/Documents/Work/Famous/api/solr/./test/data/
Jan 8, 2015 11:35:10 PM org.apache.solr.core.SolrCore <init>
INFO: JMX monitoring not detected for core: test
Jan 8, 2015 11:35:10 PM org.apache.solr.core.SolrCore initDirectoryFactory
INFO: solr.NRTCachingDirectoryFactory
Jan 8, 2015 11:35:10 PM org.apache.solr.schema.IndexSchema readSchema
INFO: query parser default operator is AND
Jan 8, 2015 11:35:10 PM org.apache.solr.schema.IndexSchema readSchema
INFO: unique key field: id
Jan 8, 2015 11:35:10 PM org.apache.solr.schema.IndexSchema readSchema
INFO: default search field in schema is text
Jan 8, 2015 11:35:10 PM org.apache.solr.schema.IndexSchema readSchema
INFO: query parser default operator is AND
Jan 8, 2015 11:35:10 PM org.apache.solr.core.SolrCore <init>
INFO: [default] Opening new SolrCore at /Users/francis/Documents/Work/Famous/api/solr/./, dataDir=/Users/francis/Documents/Work/Famous/api/solr/./default/data/
Jan 8, 2015 11:35:10 PM org.apache.solr.core.SolrCore <init>
INFO: JMX monitoring not detected for core: default
Jan 8, 2015 11:35:10 PM org.apache.solr.core.SolrCore initDirectoryFactory
INFO: solr.NRTCachingDirectoryFactory
Jan 8, 2015 11:35:10 PM org.apache.solr.schema.IndexSchema readSchema
INFO: unique key field: id
Jan 8, 2015 11:35:10 PM org.apache.solr.core.SolrCore <init>
INFO: [development] Opening new SolrCore at /Users/francis/Documents/Work/Famous/api/solr/./, dataDir=/Users/francis/Documents/Work/Famous/api/solr/./development/data/
Jan 8, 2015 11:35:10 PM org.apache.solr.core.SolrCore <init>
INFO: JMX monitoring not detected for core: development
Jan 8, 2015 11:35:10 PM org.apache.solr.core.SolrCore initDirectoryFactory
INFO: solr.NRTCachingDirectoryFactory
Jan 8, 2015 11:35:10 PM org.apache.solr.core.CachingDirectoryFactory get
INFO: return new directory for /Users/francis/Documents/Work/Famous/api/solr/./default/data forceNew: false
Jan 8, 2015 11:35:10 PM org.apache.solr.core.CachingDirectoryFactory get
INFO: return new directory for /Users/francis/Documents/Work/Famous/api/solr/./development/data forceNew: false
Jan 8, 2015 11:35:10 PM org.apache.solr.core.SolrCore getNewIndexDir
INFO: New index directory detected: old=null new=/Users/francis/Documents/Work/Famous/api/solr/./development/data/index/
Jan 8, 2015 11:35:10 PM org.apache.solr.core.CachingDirectoryFactory get
INFO: return new directory for /Users/francis/Documents/Work/Famous/api/solr/./test/data forceNew: false
Jan 8, 2015 11:35:10 PM org.apache.solr.core.SolrCore getNewIndexDir
INFO: New index directory detected: old=null new=/Users/francis/Documents/Work/Famous/api/solr/./test/data/index/
Jan 8, 2015 11:35:10 PM org.apache.solr.core.CachingDirectoryFactory get
INFO: return new directory for /Users/francis/Documents/Work/Famous/api/solr/./development/data/index forceNew: false
Jan 8, 2015 11:35:10 PM org.apache.solr.core.CachingDirectoryFactory get
INFO: return new directory for /Users/francis/Documents/Work/Famous/api/solr/./test/data/index forceNew: false
Jan 8, 2015 11:35:10 PM org.apache.solr.core.SolrCore getNewIndexDir
INFO: New index directory detected: old=null new=/Users/francis/Documents/Work/Famous/api/solr/./default/data/index/
Jan 8, 2015 11:35:10 PM org.apache.solr.core.CachingDirectoryFactory get
INFO: return new directory for /Users/francis/Documents/Work/Famous/api/solr/./default/data/index forceNew: false
Jan 8, 2015 11:35:10 PM org.apache.solr.core.RequestHandlers initHandlersFromConfig
INFO: created /select: solr.SearchHandler
Jan 8, 2015 11:35:10 PM org.apache.solr.core.RequestHandlers initHandlersFromConfig
INFO: created /query: solr.SearchHandler
Jan 8, 2015 11:35:10 PM org.apache.solr.core.RequestHandlers initHandlersFromConfig
INFO: created /select: solr.SearchHandler
Jan 8, 2015 11:35:10 PM org.apache.solr.core.RequestHandlers initHandlersFromConfig
INFO: created /query: solr.SearchHandler
Jan 8, 2015 11:35:10 PM org.apache.solr.core.RequestHandlers initHandlersFromConfig
INFO: created /get: solr.RealTimeGetHandler
Jan 8, 2015 11:35:10 PM org.apache.solr.core.RequestHandlers initHandlersFromConfig
INFO: created /update: solr.UpdateRequestHandler
Jan 8, 2015 11:35:10 PM org.apache.solr.core.RequestHandlers initHandlersFromConfig
INFO: created /update/json: solr.JsonUpdateRequestHandler
Jan 8, 2015 11:35:10 PM org.apache.solr.core.RequestHandlers initHandlersFromConfig
INFO: created /update/csv: solr.CSVRequestHandler
Jan 8, 2015 11:35:10 PM org.apache.solr.core.RequestHandlers initHandlersFromConfig
INFO: adding lazy requestHandler: solr.extraction.ExtractingRequestHandler
Jan 8, 2015 11:35:10 PM org.apache.solr.core.RequestHandlers initHandlersFromConfig
INFO: created /update/extract: solr.extraction.ExtractingRequestHandler
Jan 8, 2015 11:35:10 PM org.apache.solr.core.RequestHandlers initHandlersFromConfig
INFO: adding lazy requestHandler: solr.FieldAnalysisRequestHandler
Jan 8, 2015 11:35:10 PM org.apache.solr.core.RequestHandlers initHandlersFromConfig
INFO: created /analysis/field: solr.FieldAnalysisRequestHandler
Jan 8, 2015 11:35:10 PM org.apache.solr.core.RequestHandlers initHandlersFromConfig
INFO: adding lazy requestHandler: solr.DocumentAnalysisRequestHandler
Jan 8, 2015 11:35:10 PM org.apache.solr.core.RequestHandlers initHandlersFromConfig
INFO: created /analysis/document: solr.DocumentAnalysisRequestHandler
Jan 8, 2015 11:35:10 PM org.apache.solr.core.RequestHandlers initHandlersFromConfig
INFO: created /admin/ping: solr.PingRequestHandler
Jan 8, 2015 11:35:10 PM org.apache.solr.core.RequestHandlers initHandlersFromConfig
INFO: created /debug/dump: solr.DumpRequestHandler
Jan 8, 2015 11:35:10 PM org.apache.solr.core.RequestHandlers initHandlersFromConfig
INFO: created /select: solr.SearchHandler
Jan 8, 2015 11:35:10 PM org.apache.solr.core.RequestHandlers initHandlersFromConfig
INFO: created /get: solr.RealTimeGetHandler
Jan 8, 2015 11:35:10 PM org.apache.solr.core.RequestHandlers initHandlersFromConfig
INFO: created /query: solr.SearchHandler
Jan 8, 2015 11:35:10 PM org.apache.solr.core.RequestHandlers initHandlersFromConfig
INFO: created /update: solr.UpdateRequestHandler
Jan 8, 2015 11:35:10 PM org.apache.solr.core.RequestHandlers initHandlersFromConfig
INFO: created /get: solr.RealTimeGetHandler
Jan 8, 2015 11:35:10 PM org.apache.solr.core.RequestHandlers initHandlersFromConfig
INFO: created /update/json: solr.JsonUpdateRequestHandler
Jan 8, 2015 11:35:10 PM org.apache.solr.core.RequestHandlers initHandlersFromConfig
INFO: created /update: solr.UpdateRequestHandler
Jan 8, 2015 11:35:10 PM org.apache.solr.core.RequestHandlers initHandlersFromConfig
INFO: created /update/csv: solr.CSVRequestHandler
Jan 8, 2015 11:35:10 PM org.apache.solr.core.RequestHandlers initHandlersFromConfig
INFO: created /update/json: solr.JsonUpdateRequestHandler
Jan 8, 2015 11:35:10 PM org.apache.solr.core.RequestHandlers initHandlersFromConfig
INFO: adding lazy requestHandler: solr.extraction.ExtractingRequestHandler
Jan 8, 2015 11:35:10 PM org.apache.solr.core.RequestHandlers initHandlersFromConfig
INFO: created /update/extract: solr.extraction.ExtractingRequestHandler
Jan 8, 2015 11:35:10 PM org.apache.solr.core.RequestHandlers initHandlersFromConfig
INFO: adding lazy requestHandler: solr.FieldAnalysisRequestHandler
Jan 8, 2015 11:35:10 PM org.apache.solr.core.RequestHandlers initHandlersFromConfig
INFO: created /analysis/field: solr.FieldAnalysisRequestHandler
Jan 8, 2015 11:35:10 PM org.apache.solr.core.RequestHandlers initHandlersFromConfig
INFO: adding lazy requestHandler: solr.DocumentAnalysisRequestHandler
Jan 8, 2015 11:35:10 PM org.apache.solr.core.RequestHandlers initHandlersFromConfig
INFO: created /analysis/document: solr.DocumentAnalysisRequestHandler
Jan 8, 2015 11:35:10 PM org.apache.solr.core.RequestHandlers initHandlersFromConfig
INFO: created /admin/ping: solr.PingRequestHandler
Jan 8, 2015 11:35:10 PM org.apache.solr.core.RequestHandlers initHandlersFromConfig
INFO: created /update/csv: solr.CSVRequestHandler
Jan 8, 2015 11:35:10 PM org.apache.solr.core.RequestHandlers initHandlersFromConfig
INFO: adding lazy requestHandler: solr.extraction.ExtractingRequestHandler
Jan 8, 2015 11:35:10 PM org.apache.solr.core.RequestHandlers initHandlersFromConfig
INFO: created /update/extract: solr.extraction.ExtractingRequestHandler
Jan 8, 2015 11:35:10 PM org.apache.solr.core.RequestHandlers initHandlersFromConfig
INFO: created /debug/dump: solr.DumpRequestHandler
Jan 8, 2015 11:35:10 PM org.apache.solr.core.RequestHandlers initHandlersFromConfig
INFO: adding lazy requestHandler: solr.FieldAnalysisRequestHandler
Jan 8, 2015 11:35:10 PM org.apache.solr.core.RequestHandlers initHandlersFromConfig
INFO: created /analysis/field: solr.FieldAnalysisRequestHandler
Jan 8, 2015 11:35:10 PM org.apache.solr.core.RequestHandlers initHandlersFromConfig
INFO: adding lazy requestHandler: solr.DocumentAnalysisRequestHandler
Jan 8, 2015 11:35:10 PM org.apache.solr.core.RequestHandlers initHandlersFromConfig
INFO: created /analysis/document: solr.DocumentAnalysisRequestHandler
Jan 8, 2015 11:35:10 PM org.apache.solr.core.RequestHandlers initHandlersFromConfig
INFO: created /admin/ping: solr.PingRequestHandler
Jan 8, 2015 11:35:10 PM org.apache.solr.core.RequestHandlers initHandlersFromConfig
INFO: created /debug/dump: solr.DumpRequestHandler
Jan 8, 2015 11:35:10 PM org.apache.solr.core.RequestHandlers initHandlersFromConfig
INFO: created /replication: solr.ReplicationHandler
Jan 8, 2015 11:35:10 PM org.apache.solr.core.RequestHandlers initHandlersFromConfig
INFO: created /replication: solr.ReplicationHandler
Jan 8, 2015 11:35:10 PM org.apache.solr.core.RequestHandlers initHandlersFromConfig
INFO: created /replication: solr.ReplicationHandler
Jan 8, 2015 11:35:10 PM org.apache.solr.core.RequestHandlers initHandlersFromConfig
INFO: created /mlt: solr.MoreLikeThisHandler
Jan 8, 2015 11:35:10 PM org.apache.solr.core.RequestHandlers initHandlersFromConfig
INFO: created /mlt: solr.MoreLikeThisHandler
Jan 8, 2015 11:35:10 PM org.apache.solr.core.RequestHandlers initHandlersFromConfig
INFO: created /mlt: solr.MoreLikeThisHandler
Jan 8, 2015 11:35:10 PM org.apache.solr.core.RequestHandlers initHandlersFromConfig
INFO: created /admin/: solr.admin.AdminHandlers
Jan 8, 2015 11:35:10 PM org.apache.solr.core.RequestHandlers initHandlersFromConfig
INFO: created /admin/: solr.admin.AdminHandlers
Jan 8, 2015 11:35:10 PM org.apache.solr.core.RequestHandlers initHandlersFromConfig
INFO: created /admin/: solr.admin.AdminHandlers
Jan 8, 2015 11:35:10 PM org.apache.solr.handler.loader.XMLLoader init
INFO: xsltCacheLifetimeSeconds=60
Jan 8, 2015 11:35:10 PM org.apache.solr.handler.loader.XMLLoader init
INFO: xsltCacheLifetimeSeconds=60
Jan 8, 2015 11:35:10 PM org.apache.solr.handler.loader.XMLLoader init
INFO: xsltCacheLifetimeSeconds=60
Jan 8, 2015 11:35:10 PM org.apache.solr.handler.loader.XMLLoader init
INFO: xsltCacheLifetimeSeconds=60
Jan 8, 2015 11:35:10 PM org.apache.solr.handler.loader.XMLLoader init
INFO: xsltCacheLifetimeSeconds=60
Jan 8, 2015 11:35:10 PM org.apache.solr.handler.loader.XMLLoader init
INFO: xsltCacheLifetimeSeconds=60
Jan 8, 2015 11:35:10 PM org.apache.solr.handler.loader.XMLLoader init
INFO: xsltCacheLifetimeSeconds=60
Jan 8, 2015 11:35:10 PM org.apache.solr.handler.loader.XMLLoader init
INFO: xsltCacheLifetimeSeconds=60
Jan 8, 2015 11:35:10 PM org.apache.solr.handler.loader.XMLLoader init
INFO: xsltCacheLifetimeSeconds=60
Jan 8, 2015 11:35:10 PM org.apache.solr.search.SolrIndexSearcher <init>
INFO: Opening Searcher@396c75ed main
Jan 8, 2015 11:35:10 PM org.apache.solr.search.SolrIndexSearcher <init>
INFO: Opening Searcher@5883de21 main
Jan 8, 2015 11:35:10 PM org.apache.solr.update.CommitTracker <init>
INFO: Hard AutoCommit: if uncommited for 15000ms; 
Jan 8, 2015 11:35:10 PM org.apache.solr.update.CommitTracker <init>
INFO: Soft AutoCommit: if uncommited for 5000ms; 
Jan 8, 2015 11:35:10 PM org.apache.solr.handler.component.SpellCheckComponent inform
INFO: Initializing spell checkers
Jan 8, 2015 11:35:10 PM org.apache.solr.update.CommitTracker <init>
INFO: Hard AutoCommit: if uncommited for 15000ms; 
Jan 8, 2015 11:35:10 PM org.apache.solr.update.CommitTracker <init>
INFO: Soft AutoCommit: if uncommited for 5000ms; 
Jan 8, 2015 11:35:10 PM org.apache.solr.handler.component.SpellCheckComponent inform
INFO: Initializing spell checkers
Jan 8, 2015 11:35:10 PM org.apache.solr.spelling.DirectSolrSpellChecker init
INFO: init: {name=default,field=name,classname=solr.DirectSolrSpellChecker,distanceMeasure=internal,accuracy=0.5,maxEdits=2,minPrefix=1,maxInspections=5,minQueryLength=4,maxQueryFrequency=0.01}
Jan 8, 2015 11:35:10 PM org.apache.solr.spelling.DirectSolrSpellChecker init
INFO: init: {name=default,field=name,classname=solr.DirectSolrSpellChecker,distanceMeasure=internal,accuracy=0.5,maxEdits=2,minPrefix=1,maxInspections=5,minQueryLength=4,maxQueryFrequency=0.01}
Jan 8, 2015 11:35:10 PM org.apache.solr.handler.component.SpellCheckComponent inform
INFO: No queryConverter defined, using default converter
Jan 8, 2015 11:35:10 PM org.apache.solr.handler.component.SpellCheckComponent inform
INFO: No queryConverter defined, using default converter
Jan 8, 2015 11:35:10 PM org.apache.solr.handler.ReplicationHandler inform
INFO: Commits will be reserved for  10000
Jan 8, 2015 11:35:10 PM org.apache.solr.handler.ReplicationHandler inform
INFO: Commits will be reserved for  10000
Jan 8, 2015 11:35:10 PM org.apache.solr.search.SolrIndexSearcher <init>
INFO: Opening Searcher@13ef45e0 main
Jan 8, 2015 11:35:10 PM org.apache.solr.update.CommitTracker <init>
INFO: Hard AutoCommit: if uncommited for 15000ms; 
Jan 8, 2015 11:35:10 PM org.apache.solr.update.CommitTracker <init>
INFO: Soft AutoCommit: if uncommited for 5000ms; 
Jan 8, 2015 11:35:10 PM org.apache.solr.handler.component.SpellCheckComponent inform
INFO: Initializing spell checkers
Jan 8, 2015 11:35:10 PM org.apache.solr.spelling.DirectSolrSpellChecker init
INFO: init: {name=default,field=name,classname=solr.DirectSolrSpellChecker,distanceMeasure=internal,accuracy=0.5,maxEdits=2,minPrefix=1,maxInspections=5,minQueryLength=4,maxQueryFrequency=0.01}
Jan 8, 2015 11:35:10 PM org.apache.solr.handler.component.SpellCheckComponent inform
INFO: No queryConverter defined, using default converter
Jan 8, 2015 11:35:10 PM org.apache.solr.handler.ReplicationHandler inform
INFO: Commits will be reserved for  10000
Jan 8, 2015 11:35:10 PM org.apache.solr.core.SolrCore registerSearcher
INFO: [test] Registered new searcher Searcher@396c75ed main{StandardDirectoryReader(segments_1:1)}
Jan 8, 2015 11:35:10 PM org.apache.solr.core.SolrCore registerSearcher
INFO: [development] Registered new searcher Searcher@13ef45e0 main{StandardDirectoryReader(segments_3:7 _1(4.2):C1)}
Jan 8, 2015 11:35:10 PM org.apache.solr.core.CoreContainer registerCore
INFO: registering core: test
Jan 8, 2015 11:35:10 PM org.apache.solr.core.SolrCore registerSearcher
INFO: [default] Registered new searcher Searcher@5883de21 main{StandardDirectoryReader(segments_1:1)}
Jan 8, 2015 11:35:10 PM org.apache.solr.core.CoreContainer registerCore
INFO: registering core: default
Jan 8, 2015 11:35:10 PM org.apache.solr.core.CoreContainer registerCore
INFO: registering core: development
Jan 8, 2015 11:35:10 PM org.apache.solr.servlet.SolrDispatchFilter init
INFO: user.dir=/Users/francis/.rvm/gems/ruby-2.1.1/gems/sunspot_solr-2.1.1/solr
Jan 8, 2015 11:35:10 PM org.apache.solr.servlet.SolrDispatchFilter init
INFO: SolrDispatchFilter.init() done
